[

  {

    "group": "污染优化",

    "id": 1619085433476,

    "isEnabled": true,

    "isRegex": true,

    "name": "去污染",

    "order": 53,

    "pattern": "\\(?未完待续.*\\)?|([最更][快新])?",

    "replacement": "",

    "scope": ""

  },

  {

    "group": "污染优化",

    "id": 1619085703149,

    "isEnabled": true,

    "isRegex": true,

    "name": "去网址",

    "order": 54,

    "pattern": "\\s*(https?)*:?/*.*([cCnN]+[o0OeTnN][mMtT]|[xX]+[yY][zZ])+|\\s*([wW]{3})*.*([cCnN]+[o0OeTnN][mMtT]|[xX]+[yY][zZ])+",

    "replacement": "",

    "scope": ""

  }

]